Introduction to Data Science
…
--

```r
R> left_join(flights, planes) %>%
+   select(year, month, day, dep_time, arr_time, carrier, flight, tailnum, type, model)
```

```
## Joining, by = c("year", "tailnum")
```

```
## # A tibble: 336,776 × 10
##     year month   day dep_time arr_time carrier flight tailnum type  model
##    <int> <int> <int>    <int>    <int> <chr>    <int> <chr>   <chr> <chr>
##  1  2013     1     1      517      830 UA        1545 N14228  <NA>  <NA> 
##  2  2013     1     1      533      850 UA        1714 N24211  <NA>  <NA> 
##  3  2013     1     1      542      923 AA        1141 N619AA  <NA>  <NA> 
##  4  2013     1     1      544     1004 B6         725 N804JB  <NA>  <NA> 
##  5  2013     1     1      554      812 DL         461 N668DN  <NA>  <NA> 
##  6  2013     1     1      554      740 UA        1696 N39463  <NA>  <NA> 
##  7  2013     1     1      555      913 B6         507 N516JB  <NA>  <NA> 
##  8  2013     1     1      557      709 EV        5708 N829AS  <NA>  <NA> 
##  9  2013     1     1      557      838 B6          79 N593JB  <NA>  <NA> 
## 10  2013     1     1      558      753 AA         301 N3ALAA  <NA>  <NA> 
## # … with 336,766 more rows
```
…
