Introduction to Data Science
…
---

# 2) dplyr::arrange()

`arrange()` sorts observations in increasing order by default.

```r
R> starwars %>% 
+   arrange(birth_year)
```

```
## # A tibble: 87 × 14
##    name     height  mass hair_color skin_color eye_color birth_year sex   gender
##    <chr>     <int> <dbl> <chr>      <chr>      <chr>          <dbl> <chr> <chr> 
##  1 Wicket …     88  20   brown      brown      brown            8   male  mascu…
##  2 IG-88       200 140   none       metal      red             15   none  mascu…
##  3 Luke Sk…    172  77   blond      fair       blue            19   male  mascu…
##  4 Leia Or…    150  49   brown      light      brown           19   fema… femin…
##  5 Wedge A…    170  77   brown      fair       hazel           21   male  mascu…
##  6 Plo Koon    188  80   none       orange     black           22   male  mascu…
##  7 Biggs D…    183  84   black      light      brown           24   male  mascu…
##  8 Han Solo    180  80   brown      fair       brown           29   male  mascu…
##  9 Lando C…    177  79   black      dark       brown           31   male  mascu…
## 10 Boba Fe…    183  78.2 black      fair       brown           31.5 male  mascu…
## # … with 77 more rows, and 5 more variables: homeworld <chr>, species <chr>,
## #   films <list>, vehicles <list>, starships <list>
```
…
*Note:* Arranging on a character-based column (i.e. strings) will sort alphabetically.

---

# 2) dplyr::arrange() *cont.*

We can also arrange items in descending order using `arrange(desc())`.

```r
R> starwars %>% 
+   arrange(desc(birth_year))
```

```
## # A tibble: 87 × 14
##    name    height  mass hair_color skin_color  eye_color birth_year sex   gender
##    <chr>    <int> <dbl> <chr>      <chr>       <chr>          <dbl> <chr> <chr> 
##  1 Yoda        66    17 white      green       brown            896 male  mascu…
##  2 Jabba …    175  1358 <NA>       green-tan,… orange           600 herm… mascu…
##  3 Chewba…    228   112 brown      unknown     blue             200 male  mascu…
##  4 C-3PO      167    75 <NA>       gold        yellow           112 none  mascu…
##  5 Dooku      193    80 white      fair        brown            102 male  mascu…
##  6 Qui-Go…    193    89 brown      fair        blue              92 male  mascu…
##  7 Ki-Adi…    198    82 white      pale        yellow            92 male  mascu…
##  8 Finis …    170    NA blond      fair        blue              91 male  mascu…
##  9 Palpat…    170    75 grey       pale        yellow            82 male  mascu…
## 10 Cliegg…    183    NA brown      fair        blue              82 male  mascu…
## # … with 77 more rows, and 5 more variables: homeworld <chr>, species <chr>,
## #   films <list>, vehicles <list>, starships <list>
```

---
name: select

# 3) dplyr::select()

Use commas to select multiple columns out of a data frame. (You can also use `<first>:<last>` for consecutive columns). Deselect a column with "-".

```r
R> starwars %>% 
+   select(name:skin_color, species, -height)
```

```
## # A tibble: 87 × 5
##    name                mass hair_color    skin_color  species
##    <chr>              <dbl> <chr>         <chr>       <chr>  
##  1 Luke Skywalker        77 blond         fair        Human  
##  2 C-3PO                 75 <NA>          gold        Droid  
##  3 R2-D2                 32 <NA>          white, blue Droid  
##  4 Darth Vader          136 none          white       Human  
##  5 Leia Organa           49 brown         light       Human  
##  6 Owen Lars            120 brown, grey   light       Human  
##  7 Beru Whitesun lars    75 brown         light       Human  
##  8 R5-D4                 32 <NA>          white, red  Droid  
##  9 Biggs Darklighter     84 black         light       Human  
## 10 Obi-Wan Kenobi        77 auburn, white fair        Human  
## # … with 77 more rows
```

---

# 3) dplyr::select() *cont.*

You can also rename some (or all) of your selected variables in place.

```r
R> starwars %>%
+   select(alias = name, crib = homeworld, sex = gender) 
```

```
## # A tibble: 87 × 3
##    alias              crib     sex      
##    <chr>              <chr>    <chr>    
##  1 Luke Skywalker     Tatooine masculine
##  2 C-3PO              Tatooine masculine
##  3 R2-D2              Naboo    masculine
##  4 Darth Vader        Tatooine masculine
##  5 Leia Organa        Alderaan feminine 
##  6 Owen Lars          Tatooine masculine
##  7 Beru Whitesun lars Tatooine feminine 
##  8 R5-D4              Tatooine masculine
##  9 Biggs Darklighter  Tatooine masculine
## 10 Obi-Wan Kenobi     Stewjon  masculine
## # … with 77 more rows
```
…
If you just want to rename columns without subsetting them, you can use `rename()`.

---

# 3) dplyr::select() *cont.*

The `select(contains(<PATTERN>))` option provides a nice shortcut in relevant cases.

```r
R> starwars %>% 
+   select(name, contains("color"))
```

```
## # A tibble: 87 × 4
##    name               hair_color    skin_color  eye_color
##    <chr>              <chr>         <chr>       <chr>    
##  1 Luke Skywalker     blond         fair        blue     
##  2 C-3PO              <NA>          gold        yellow   
##  3 R2-D2              <NA>          white, blue red      
##  4 Darth Vader        none          white       yellow   
##  5 Leia Organa        brown         light       brown    
##  6 Owen Lars          brown, grey   light       blue     
##  7 Beru Whitesun lars brown         light       blue     
##  8 R5-D4              <NA>          white, red  red      
##  9 Biggs Darklighter  black         light       brown    
## 10 Obi-Wan Kenobi     auburn, white fair        blue-gray
## # … with 77 more rows
```
…
---

# Grouping with dplyr::group_by()

With `group_by()`, you can create a "grouped" copy of a table grouped by unique values of a column. If multiple columns are specified, the function groups by all available combinations of values.

```r
R> by_species_gender <- starwars %>% group_by(species, gender) 
R> by_species_gender
```

```
## # A tibble: 87 × 14
## # Groups:   species, gender [42]
##    name    height  mass hair_color  skin_color eye_color birth_year sex   gender
##    <chr>    <int> <dbl> <chr>       <chr>      <chr>          <dbl> <chr> <chr> 
##  1 Luke S…    172    77 blond       fair       blue            19   male  mascu…
##  2 C-3PO      167    75 <NA>        gold       yellow         112   none  mascu…
##  3 R2-D2       96    32 <NA>        white, bl… red             33   none  mascu…
##  4 Darth …    202   136 none        white      yellow          41.9 male  mascu…
##  5 Leia O…    150    49 brown       light      brown           19   fema… femin…
##  6 Owen L…    178   120 brown, grey light      blue            52   male  mascu…
##  7 Beru W…    165    75 brown       light      blue            47   fema… femin…
##  8 R5-D4       97    32 <NA>        white, red red             NA   none  mascu…
##  9 Biggs …    183    84 black       light      brown           24   male  mascu…
## 10 Obi-Wa…    182    77 auburn, wh… fair       blue-gray       57   male  mascu…
## # … with 77 more rows, and 5 more variables: homeworld <chr>, species <chr>,
## #   films <list>, vehicles <list>, starships <list>
```
…
